…
A data frame with the treatment column, the response column (named
according to `response_name`), and a `replicate` integer column
indicating which simulation each row belongs to.

## Examples

``` r
data <- data.frame(
  treatment = factor(c("control", "control", "treatment", "treatment", "control", "treatment")),
  response  = c(10, 12, 15, 18, 11, 17)
)
schedule <- experiment_to_schedule(data, treatment, response)
imputed  <- impute_unobserved(schedule, tau = 0)
sim_experiment(imputed, reps = 5)
#> # A tibble: 30 × 3
#>    replicate treatment response
#>        <int> <fct>        <dbl>
#>  1         1 treatment       10
#>  2         1 control         12
#>  3         1 treatment       15
#>  4         1 treatment       18
#>  5         1 control         11
#>  6         1 control         17
#>  7         2 treatment       10
#>  8         2 control         12
#>  9         2 treatment       15
#> 10         2 control         18
#> # ℹ 20 more rows
```
