Anchoring Experiment • designrbi
…
ate_hat <- diff_in_means(anchor$y, anchor$d)
ate_hat
#> [1] 15.46992

Make a schedule and impute unobserved potential outcomes

schedule <- anchor |>
  as_schedule(treatment = d, response = y)
schedule
#> # A tibble: 74 × 4
#>    d         y   Y11   Y73
#>    <fct> <dbl> <dbl> <dbl>
#>  1 11     16    16      NA
#>  2 11      5     5      NA
#>  3 73     20    NA      20
#>  4 73     40    NA      40
#>  5 11     73    73      NA
#>  6 73     70    NA      70
#>  7 11      6.5   6.5    NA
#>  8 73     12    NA      12
#>  9 11     15    15      NA
#> 10 11     70    70      NA
#> # ℹ 64 more rows

imputed_schedule <- impute_unobserved(schedule, tau = ate_hat)
imputed_schedule
#> # A tibble: 74 × 4
#>    d         y   Y11   Y73
#>    <fct> <dbl> <dbl> <dbl>
#>  1 11     16   16     31.5
#>  2 11      5    5     20.5
#>  3 73     20    4.53  20  
#>  4 73     40   24.5   40  
#>  5 11     73   73     88.5
#>  6 73     70   54.5   70  
#>  7 11      6.5  6.5   22.0
#>  8 73     12   -3.47  12  
#>  9 11     15   15     30.5
#> 10 11     70   70     85.5
#> # ℹ 64 more rows

Simulate a single experiment

sim1 <- imputed_schedule |>
  sim_experiment(reps = 1)
sim1
#> # A tibble: 74 × 3
#>    replicate d         y
#>        <int> <fct> <dbl>
#>  1         1 73    31.5 
#>  2         1 11     5   
#>  3         1 73    20   
#>  4         1 73    40   
#>  5         1 11    73   
#>  6         1 73    70   
#>  7         1 11     6.5 
#>  8         1 11    -3.47
#>  9         1 11    15   
#> 10         1 73    85.5 
#> # ℹ 64 more rows
…
sim5000_estimates <- sim5000 |>
  group_by(replicate) |>
  summarize(ate_hat = diff_in_means(y, d))
sim5000_estimates
#> # A tibble: 5,000 × 2
#>    replicate ate_hat
#>        <int>   <dbl>
#>  1         1    8.78
#>  2         2   12.3 
#>  3         3   15.9 
#>  4         4   18.9 
#>  5         5   15.3 
#>  6         6   13.1 
#>  7         7   21.0 
#>  8         8   12.5 
#>  9         9   25.1 
#> 10        10   12.1 
#> # ℹ 4,990 more rows
…
