…
### Understanding the experimental data

Start by loading the necessary libraries and the data.

``` r
library(dplyr)
library(ggplot2)
library(readr)
anchor <- read_csv("https://stat158.berkeley.edu/spring-2026/data/anchoring/anchoring.csv") |>
  mutate(d = factor(X),
         y = Y) |>
  select(d, y)
anchor
#> # A tibble: 74 × 2
#>    d         y
#>    <fct> <dbl>
#>  1 11     16  
#>  2 11      5  
#>  3 73     20  
#>  4 73     40  
#>  5 11     73  
#>  6 73     70  
#>  7 11      6.5
#>  8 73     12  
#>  9 11     15  
#> 10 11     70  
#> # ℹ 64 more rows
```
…
### Impute a schedule of potential outcomes

A RBI confidence interval seeks to quantify the variability that was
induced by the random assignment that occurred at the outset of the
experiment. To do this, we first need to impute the unobserved potential
outcomes for each unit in the experiment. Let’s start by creating a
schedule of the observed potential outcomes.

``` r
schedule <- anchor |>
  experiment_to_schedule(treatment = d, response = y)
schedule
#> # A tibble: 74 × 4
#>    d         y   Y11   Y73
#>    <fct> <dbl> <dbl> <dbl>
#>  1 11     16    16      NA
#>  2 11      5     5      NA
#>  3 73     20    NA      20
#>  4 73     40    NA      40
#>  5 11     73    73      NA
#>  6 73     70    NA      70
#>  7 11      6.5   6.5    NA
#>  8 73     12    NA      12
#>  9 11     15    15      NA
#> 10 11     70    70      NA
#> # ℹ 64 more rows
```

Note that the schedule contains the observed potential outcomes for each
unit, but the unobserved potential outcomes are missing. We can use the
observed ATE estimate to impute the unobserved potential outcomes by
assuming that the treatment effect is constant across all units.

``` r
imputed_schedule <- impute_unobserved(schedule, tau = ate_hat)
imputed_schedule
#> # A tibble: 74 × 4
#>    d         y   Y11   Y73
#>    <fct> <dbl> <dbl> <dbl>
#>  1 11     16   16     31.5
#>  2 11      5    5     20.5
#>  3 73     20    4.53  20  
#>  4 73     40   24.5   40  
#>  5 11     73   73     88.5
#>  6 73     70   54.5   70  
#>  7 11      6.5  6.5   22.0
#>  8 73     12   -3.47  12  
#>  9 11     15   15     30.5
#> 10 11     70   70     85.5
#> # ℹ 64 more rows
```
…
### Simulate a single experiment

Now that we have a schedule of potential outcomes, we can simulate the
random assignment process to generate new datasets that could have been
observed under the same experimental design. Let’s start by simulating a
single experiment.

``` r
set.seed(402) # for reproducibility
sim1 <- imputed_schedule |>
  sim_experiment(reps = 1)
sim1
#> # A tibble: 74 × 3
#>    replicate d         y
#>        <int> <fct> <dbl>
#>  1         1 73    31.5 
#>  2         1 11     5   
#>  3         1 73    20   
#>  4         1 11    24.5 
#>  5         1 73    88.5 
#>  6         1 73    70   
#>  7         1 11     6.5 
#>  8         1 11    -3.47
#>  9         1 73    30.5 
#> 10         1 11    70   
#> # ℹ 64 more rows
```

We can compare this to the original data set:

``` r
anchor
#> # A tibble: 74 × 2
#>    d         y
#>    <fct> <dbl>
#>  1 11     16  
#>  2 11      5  
#>  3 73     20  
#>  4 73     40  
#>  5 11     73  
#>  6 73     70  
#>  7 11      6.5
#>  8 73     12  
#>  9 11     15  
#> 10 11     70  
#> # ℹ 64 more rows
```
…
[`sim_experiment()`](https://github.com/andrewpbray/designrbi/reference/sim_experiment.md)
returns the 5000 simulated experiments as a single tall data frame, each
one stacked on top of one another, with a new variable called
`replicate` that indicates which rows belong to which simulated
experiment. We can use this variable to group the data and calculate the
ATE estimate for each simulated experiment.

``` r
sim5000_estimates <- sim5000 |>
  group_by(replicate) |>
  summarize(ate_hat = diff_in_means(y, d))
sim5000_estimates
#> # A tibble: 5,000 × 2
#>    replicate ate_hat
#>        <int>   <dbl>
#>  1         1    13.3
#>  2         2    21.5
#>  3         3    20.9
#>  4         4    19.8
#>  5         5    14.2
#>  6         6    16.7
#>  7         7    13.6
#>  8         8    13.9
#>  9         9    19.3
#> 10        10    16.9
#> # ℹ 4,990 more rows
```
…
